…
d2 <- d %>% 
  transmute(
    group = factor(GroupID),
    fish = factor(FishID),
    treatment = factor(TreatmentgroupMS, levels = c('6u/0i', '4u/2i', '2u/4i', '0u/6i'),
                       labels = c('6u', '4u/2i', '2u/4i', '6i')),
    infected = factor(Infected, c('no', 'Yes'), c('uninf', 'inf')),
    time_dangerous = `Time spend in dangerous zone (sec)`,
    period = factor(`BeforeOrAfter bird strike`, c('Before', 'After'), c('before', 'after')),
    escape_zone = factor(`Escape zone`, c('Safe zone', 'Dangerous zone'), c('safe', 'dangerous'))
  )

d2

## # A tibble: 336 x 7
##    group fish  treatment infected time_dangerous period escape_zone
##    <fct> <fct> <fct>     <fct>             <dbl> <fct>  <fct>      
##  1 3     15    6u        uninf               534 before dangerous  
##  2 3     15    6u        uninf               457 after  dangerous  
##  3 7     37    6u        uninf               371 before dangerous  
##  4 7     37    6u        uninf                99 after  dangerous  
##  5 7     42    6u        uninf               335 before dangerous  
##  6 7     42    6u        uninf                66 after  dangerous  
##  7 1     1     6u        uninf               576 before safe       
##  8 1     1     6u        uninf               118 after  safe       
##  9 1     2     6u        uninf               580 before safe       
## 10 1     2     6u        uninf               172 after  safe       
## # ... with 326 more rows
…
